NLPR - 4 Testing Rmd
…
# or use 

gutenberg_works(str_detect(author, "Carroll"))

# A tibble: 31 × 8
   gutenberg_id title              author guten…¹ langu…² guten…³ rights has_t…⁴
          <int> <chr>              <chr>    <int> <chr>   <chr>   <chr>  <lgl>  
 1           11 "Alice's Adventur… Carro…       7 en      Childr… Publi… TRUE   
 2           12 "Through the Look… Carro…       7 en      Childr… Publi… TRUE   
 3           13 "The Hunting of t… Carro…       7 en      Childr… Publi… TRUE   
 4          620 "Sylvie and Bruno" Carro…       7 en      <NA>    Publi… TRUE   
 5          651 "Phantasmagoria a… Carro…       7 en      <NA>    Publi… TRUE   
 6         4763 "The Game of Logi… Carro…       7 en      Philos… Publi… TRUE   
 7         5994 "Our Nervous Frie… Carro…    1906 en      Psycho… Publi… TRUE   
 8        16861 "The Wedge of Gol… Goodw…    6978 en      <NA>    Publi… TRUE   
 9        19002 "Alice's Adventur… Carro…       7 en      Childr… Publi… TRUE   
10        23160 "Solomon's Orbit"  Carro…   25719 en      Scienc… Publi… TRUE   
# … with 21 more rows, and abbreviated variable names ¹​gutenberg_author_id,
#   ²​language, ³​gutenberg_bookshelf, ⁴​has_text
…
book_tokens = book_df %>% 
  unnest_tokens(input = book_file, output = word)

book_clean = book_tokens %>% 
  anti_join(stop_words, by='word')

book_clean %>% 
  filter(word != c("gutenberg","project")) %>% 
  count(word, sort = T)

Warning in word != c("gutenberg", "project"): longer object length is not a
multiple of shorter object length

# A tibble: 6,748 × 2
   word       n
   <chr>  <int>
 1 dorian   414
 2 don’t    255
 3 lord     248
 4 life     230
 5 henry    223
 6 gray     193
 7 harry    174
 8 basil    153
 9 love     111
10 time     110
# … with 6,738 more rows
…
