NLPR - 4 TidyText
…
books_tf_idf %>% 
  select( -total, -percentage ) %>% 
  arrange( desc(tf_idf))

# A tibble: 18,640 × 6
   book                             word        n      tf   idf  tf_idf
   <chr>                            <chr>   <int>   <dbl> <dbl>   <dbl>
 1 Alice's Adventures in Wonderland alice     386 0.0129  1.39  0.0178 
 2 The Hunting of the Snark         snark      36 0.00427 1.39  0.00592
 3 The Hunting of the Snark         bellman    32 0.00379 1.39  0.00526
 4 Tales of Space and Time          lomi      202 0.00263 1.39  0.00364
 5 Tales of Space and Time          denton    172 0.00224 1.39  0.00310
 6 Alice's Adventures in Wonderland turtle     56 0.00187 1.39  0.00259
 7 Alice's Adventures in Wonderland gryphon    55 0.00183 1.39  0.00254
 8 Alice's Adventures in Wonderland hatter     55 0.00183 1.39  0.00254
 9 The Hunting of the Snark         beaver     15 0.00178 1.39  0.00247
10 Tales of Space and Time          mr        261 0.00339 0.693 0.00235
# … with 18,630 more rows
…
4.6.2 count n-grams

Let us see what 2 words often appear in this twitter text data.

tweets_token %>% 
  count( bigram, sort = T)

# A tibble: 108,145 × 2
   bigram             n
   <chr>          <int>
 1 https t.co      8657
 2 toronto https   1131
 3 in toronto      1055
 4 toronto canada   551
 5 to the           422
 6 in the           342
 7 the best         335
 8 of the           332
 9 from toronto     290
10 the world        288
# … with 108,135 more rows
…
what is the words associated when word2 is “reggae” ?

twitter_bigram_filtered %>% 
  filter(word2 == "reggae") %>% 
  count(word1, sort = T)

# A tibble: 30 × 2
   word1              n
   <chr>          <int>
 1 global           246
 2 rootsreggaehub   246
 3 nights            10
 4 canadian           5
 5 julionking         3
 6 bamboo             2
 7 copa               2
 8 grove              2
 9 music              2
10 rivoli             2
# … with 20 more rows

Unite the bigrams

twitter_bigrams_united = twitter_bigram_counts %>% 
  unite(bigram, word1, word2, sep = " ")

twitter_bigrams_united

# A tibble: 51,847 × 2
   bigram                    n
   <chr>                 <int>
 1 toronto canada          551
 2 toronto ontario         257
 3 air nowplaying          246
 4 family playing          246
 5 global reggae           246
 6 reggae family           246
 7 reggae music            246
 8 reggae reggaeallday     246
 9 reggaeallday toronto    246
10 rootsreggaehub reggae   246
# … with 51,837 more rows
…
4.7.1 pairwise ngrams

Pairwise correlation to look at words frequency and how often the two words are used together. The metric used in the phi coefficient, which indicates whether either word appear together than independently.

twitter_cor = twitter_bigram_counts %>% 
  group_by(word1) %>% 
  filter( n >= 30) %>% 
  widyr::pairwise_cor(word1, word2, sort=T)

What words are correlated with the first word ‘toronto’.

twitter_cor %>% 
  filter(item1 =="toronto")

# A tibble: 98 × 3
   item1   item2        correlation
   <chr>   <chr>              <dbl>
 1 toronto art               0.184 
 2 toronto quebec            0.184 
 3 toronto canada            0.0923
 4 toronto montreal          0.0923
 5 toronto ontario           0.0923
 6 toronto onpoli            0.0923
 7 toronto air              -0.0543
 8 toronto family           -0.0543
 9 toronto global           -0.0543
10 toronto reggaeallday     -0.0543
# … with 88 more rows
…
